{
    "http://www.w3.org/1999/02/22-rdf-syntax-ns#type": [],
    "http://schema.org/productID": [],
    "http://schema.org/membershipNumber": [],
    "http://www.loc.gov/mads/rdf/v1#country": ["name"],
    "http://www.loc.gov/mads/rdf/v1#city": [],
    "http://schema.org/name": [],
    "http://schema.org/givenName": [],
    "http://schema.org/additionalName": ["initials"],
    "http://schema.org/familyName": ["surName"],
    "http://schema.org/url": [],
    "http://schema.org/legalName": [],
    "http://schema.org/learningResourceType": [],
    "http://schema.org/keywords": [],
    "http://schema.org/interactionCount": [],
    "http://schema.org/dateline": ["date"],
    "http://schema.org/creator": [],
    "http://schema.org/description": [],
    "http://schema.org/text": [],
    "http://schema.org/alternativeHeadline": ["section"],
    "http://schema.org/interactivityType": [],
    "http://schema.org/alternateName": [],
    "http://schema.org/version": ["volume"],
    "http://schema.org/affiliation": [],
    "group": [],
    "color": [],
    "size": [],
    "id": [],
    "x": [],
    "y": []
}
