{
    "rdf-type": [],
    "productID": [],
    "membershipNumber": [],
    "country": [],
    "city": [],
    "name": [],
    "givenName": [],
    "initials": [],
    "surName": [],
    "url": [],
    "legalName": ["name"],
    "learningResourceType": [],
    "keywords": [],
    "interactionCount": [],
    "date": [],
    "creator": [],
    "description": [],
    "text": [],
    "section": [],
    "interactivityType": [],
    "alternateName": [],
    "version": ["volume"],
    "affiliation": [],
    "group": [],
    "color": [],
    "size": [],
    "id": [],
    "type": [],
    "publisher": [],
    "search": []
}
